{
    "experiment": "CMS",
    "etc_directory": "~squidmon/etc/distance-monitor/",
    "geo_db": "/var/lib/cvmfs-server/geo/GeoLite2-City.mmdb",
    "nodes_mapping_file": "~squidmon/conf/awstats/SiteProjectNodesMapping",
    "awstats_directory": "~squidmon/data/awstats/",
    "www_directory": "~squidmon/www/distance-monitor/",
    "wwwsrc_directory": "~squidmon/wwwsrc/distance-monitor/",
    "symbolic_links": [
        "css",
        "js",
        "distance-monitor.html"
    ],
    "groups": {
        "cmscernct": {
            "name": "CERN Frontier Launchpads",
            "awstats": [
                "cmsfrontier1-0",
                "cmsfrontier2-0",
                "cmsfrontier3-0",
                "cmsfrontier4-0"
            ],
            "timezone": "Europe/Zurich"
        }
    },
    "history": {
        "span": 72,
        "period": 60
    }
}
